Order-Id,Item-id,Product-Id,Quantity,Sales-Id,Customer-Id,Sales-Price-Per-Prod,Market-Segment
0,0,6,12,2,10,65,software
1,1,17,13,5,21,188,financial
2,2,6,14,3,14,50,retail
3,3,8,19,7,15,124,education
4,4,18,6,0,7,88,education
5,5,17,15,7,5,205,retail
6,6,2,21,9,19,203,realestate
7,7,9,4,5,11,90,retail
8,8,5,4,9,17,105,realestate
9,9,17,4,8,15,183,financial
10,10,0,29,7,7,123,financial
11,11,2,18,7,23,213,realestate
12,12,9,23,2,20,71,retail
13,13,11,17,1,6,96,financial
14,14,1,22,9,7,206,financial
15,15,0,8,1,15,121,education
16,16,9,19,2,5,59,education
17,17,15,6,5,5,182,pharmaceutical
18,18,10,18,2,17,145,realestate
19,19,5,19,2,27,120,retail
20,20,19,25,3,10,116,financial
21,21,2,15,3,28,199,pharmaceutical
22,22,11,23,1,18,106,retail
23,23,7,11,4,0,137,financial
24,24,19,25,0,14,74,realestate
25,25,7,11,5,9,123,pharmaceutical
26,26,6,5,7,26,48,financial
27,27,16,19,4,16,146,retail
28,28,12,4,8,12,89,financial
29,29,4,16,8,6,153,retail
30,30,11,26,6,28,113,education
31,31,6,3,3,5,47,retail
32,32,10,20,5,2,127,pharmaceutical
33,33,16,23,8,28,152,education
34,34,15,10,7,1,213,retail
35,35,0,22,0,20,121,education
36,36,4,23,0,14,165,realestate
37,37,5,4,3,22,111,software
38,38,15,0,4,28,208,financial
39,39,4,0,8,20,156,retail
40,40,6,12,8,2,70,education
41,41,13,12,8,22,140,education
42,42,3,21,8,11,180,pharmaceutical
43,43,12,0,6,26,105,education
44,44,15,24,8,25,179,realestate
45,45,13,18,6,16,133,retail
46,46,12,23,5,13,102,software
47,47,19,22,3,10,117,realestate
48,48,10,11,2,28,138,realestate
49,49,5,6,8,19,109,financial
50,50,6,23,1,6,54,financial
51,51,8,5,4,27,208,retail
52,52,8,19,7,12,128,retail
53,53,12,11,7,29,97,education
54,54,14,14,6,23,189,financial
55,55,9,8,7,17,102,realestate
56,56,15,20,1,22,194,software
57,57,4,12,2,11,146,education
58,58,17,15,5,5,187,retail
59,59,11,17,9,13,95,retail
60,60,0,8,8,8,121,software
61,61,3,16,9,27,185,financial
62,62,0,29,2,3,119,pharmaceutical
63,63,15,17,1,27,189,financial
64,64,14,13,9,25,197,education
65,65,13,16,2,22,102,retail
66,66,16,20,6,21,152,education
67,67,3,21,3,25,208,pharmaceutical
68,68,11,20,8,14,96,education
69,69,2,1,3,7,201,education
70,70,17,17,0,18,198,retail
71,71,7,21,8,3,142,pharmaceutical
72,72,13,25,8,23,144,financial
73,73,4,15,0,9,187,realestate
74,74,11,23,3,15,95,realestate
75,75,9,26,9,9,45,financial
76,76,8,22,9,13,157,realestate
77,77,2,10,7,17,203,pharmaceutical
78,78,16,29,9,6,161,software
79,79,7,7,5,7,150,education
80,80,14,5,9,12,183,pharmaceutical
81,81,3,13,1,20,201,retail
82,82,13,20,3,26,131,pharmaceutical
83,83,14,5,3,8,183,retail
84,84,3,11,9,27,191,retail
85,85,6,16,5,1,42,financial
86,86,12,24,0,5,88,pharmaceutical
87,87,10,20,0,28,115,education
88,88,14,25,2,9,192,realestate
89,89,19,24,2,14,117,realestate
90,90,19,5,7,5,71,financial
91,91,11,12,8,3,115,realestate
92,92,5,22,0,28,124,retail
93,93,7,17,7,29,135,financial
94,94,8,14,1,25,173,education
95,95,12,11,2,29,81,realestate
96,96,7,14,4,8,161,software
97,97,18,16,2,10,90,retail
98,98,14,14,5,17,194,financial
99,99,14,12,9,8,195,education
100,100,12,27,2,14,107,realestate
101,101,17,20,5,24,201,retail
102,102,0,13,9,6,123,education
103,103,2,7,1,7,210,education
104,104,6,27,9,27,84,financial
105,105,16,23,8,22,151,realestate
106,106,12,2,6,29,79,software
107,107,0,16,9,4,123,retail
108,108,14,8,2,3,185,realestate
109,109,10,4,3,14,146,pharmaceutical
110,110,9,15,7,29,103,financial
111,111,4,0,4,26,137,software
112,112,5,5,8,2,92,software
113,113,3,6,3,15,194,software
114,114,18,26,5,22,92,realestate
115,115,0,7,7,0,123,pharmaceutical
116,116,18,26,2,10,75,pharmaceutical
117,117,3,22,6,25,202,software
118,118,5,29,5,0,118,pharmaceutical
119,119,8,8,9,24,118,financial
120,120,14,10,0,6,189,software
121,121,13,4,6,27,102,realestate
122,122,17,3,4,15,201,education
123,123,3,28,5,14,179,financial
124,124,11,27,4,25,102,education
125,125,12,27,8,1,107,retail
126,126,16,10,5,28,148,pharmaceutical
127,127,15,2,3,28,200,realestate
128,128,17,11,6,6,194,education
129,129,18,0,5,26,95,retail
130,130,0,11,0,24,120,financial
131,131,15,29,2,3,207,retail
132,132,18,25,0,3,86,software
133,133,10,27,7,12,125,pharmaceutical
134,134,8,19,0,2,196,financial
135,135,5,27,4,11,98,retail
136,136,17,6,3,16,204,realestate
137,137,0,5,3,4,121,retail
138,138,10,14,7,1,88,realestate
139,139,10,4,5,27,147,software
140,140,3,27,6,19,205,pharmaceutical
141,141,16,24,0,8,160,realestate
142,142,13,8,4,25,88,realestate
143,143,14,27,4,24,181,pharmaceutical
144,144,3,3,9,14,189,financial
145,145,1,5,4,3,226,financial
146,146,2,28,7,22,202,financial
147,147,10,11,4,0,142,pharmaceutical
148,148,0,22,7,10,119,financial
149,149,13,10,5,21,129,realestate
150,150,9,6,1,11,70,pharmaceutical
151,151,1,17,5,4,204,retail
152,152,9,22,3,29,86,retail
153,153,17,17,6,8,183,education
154,154,5,24,1,19,93,retail
155,155,7,7,4,24,140,retail
156,156,13,4,6,28,136,retail
157,157,17,1,9,28,190,financial
158,158,4,22,3,12,141,education
159,159,13,11,5,10,86,retail
160,160,0,26,2,19,119,pharmaceutical
161,161,2,10,1,26,199,education
162,162,18,0,9,11,94,financial
163,163,14,6,4,26,195,financial
164,164,10,10,7,16,155,pharmaceutical
165,165,1,8,1,21,169,education
166,166,16,18,3,6,150,retail
167,167,8,10,6,0,159,education
168,168,14,9,5,25,180,realestate
169,169,0,28,0,11,123,education
170,170,14,6,9,27,189,retail
171,171,14,19,5,3,196,financial
172,172,15,26,9,10,185,software
173,173,17,6,8,29,198,retail
174,174,14,27,6,23,188,pharmaceutical
175,175,5,17,0,6,107,software
176,176,12,14,8,28,87,financial
177,177,7,25,1,14,157,retail
178,178,7,28,4,18,162,retail
179,179,11,17,1,2,115,financial
180,180,2,27,7,4,214,retail
181,181,2,12,2,22,213,financial
182,182,7,12,0,11,126,pharmaceutical
183,183,12,5,0,16,83,retail
184,184,4,8,4,17,158,retail
185,185,15,7,9,26,200,financial
186,186,5,28,9,6,132,pharmaceutical
187,187,8,26,4,12,193,retail
188,188,15,15,0,22,204,education
189,189,7,15,8,13,129,financial
190,190,7,21,5,17,122,software
191,191,2,2,0,0,207,realestate
192,192,4,21,5,22,168,pharmaceutical
193,193,4,26,5,8,174,pharmaceutical
194,194,8,15,2,18,167,pharmaceutical
195,195,14,0,8,11,183,software
196,196,15,10,2,12,220,retail
197,197,6,10,6,21,43,education
198,198,1,26,9,19,170,software
199,199,3,25,8,21,194,realestate
200,200,9,11,3,4,49,education
201,201,5,24,0,21,108,pharmaceutical
202,202,15,10,0,29,208,education
203,203,5,7,5,16,125,financial
204,204,1,7,4,27,201,realestate
205,205,10,8,1,22,141,software
206,206,8,17,5,12,171,realestate
207,207,6,25,6,28,83,retail
208,208,12,5,7,0,95,pharmaceutical
209,209,3,27,3,18,165,realestate
210,210,19,22,5,23,96,education
211,211,15,24,6,10,179,realestate
212,212,19,28,1,2,77,education
213,213,15,14,3,24,184,pharmaceutical
214,214,7,28,9,20,157,realestate
215,215,16,27,2,15,161,financial
216,216,7,18,2,18,165,software
217,217,3,5,3,1,215,retail
218,218,12,6,8,17,79,retail
219,219,10,23,2,10,112,realestate
220,220,14,17,3,28,183,retail
221,221,2,3,5,27,209,retail
222,222,10,19,1,3,107,software
223,223,18,4,0,9,92,retail
224,224,0,16,4,21,123,realestate
225,225,10,3,5,22,94,software
226,226,2,8,0,11,208,education
227,227,8,27,5,8,195,education
228,228,13,2,0,21,121,realestate
229,229,4,0,7,8,161,financial
230,230,6,11,7,18,38,realestate
231,231,18,25,2,16,99,retail
232,232,5,20,7,0,93,financial
233,233,10,4,5,10,92,retail
234,234,4,24,9,3,167,retail
235,235,10,14,0,26,141,financial
236,236,5,28,6,21,123,realestate
237,237,16,18,5,1,146,pharmaceutical
238,238,12,27,7,6,88,realestate
239,239,11,25,7,25,95,financial
240,240,14,3,8,21,191,software
241,241,8,9,5,24,118,software
242,242,1,6,1,6,176,financial
243,243,16,22,3,29,161,financial
244,244,0,26,9,13,119,education
245,245,11,0,8,14,136,realestate
246,246,15,22,8,9,214,realestate
247,247,3,4,2,23,169,software
248,248,19,28,4,28,111,pharmaceutical
249,249,17,26,5,25,186,realestate
250,250,10,13,7,0,135,software
251,251,8,14,8,21,126,pharmaceutical
252,252,17,21,5,21,199,retail
253,253,14,6,5,1,180,realestate
254,254,1,3,1,13,218,financial
255,255,2,8,7,13,216,realestate
256,256,18,23,3,13,80,education
257,257,8,6,0,28,139,financial
258,258,0,27,1,24,121,financial
259,259,4,24,9,24,172,financial
260,260,1,23,6,17,193,realestate
261,261,12,21,2,2,91,realestate
262,262,4,19,5,18,135,financial
263,263,17,26,8,2,183,education
264,264,4,8,6,23,192,realestate
265,265,3,7,9,20,186,education
266,266,15,10,5,23,208,education
267,267,2,4,7,12,210,realestate
268,268,0,21,9,28,120,retail
269,269,14,7,5,6,197,financial
270,270,6,0,0,29,74,retail
271,271,5,28,4,18,103,retail
272,272,16,19,0,11,157,education
273,273,15,6,4,7,187,retail
274,274,1,28,9,21,208,software
275,275,19,7,1,11,92,pharmaceutical
276,276,16,13,7,1,150,education
277,277,12,2,0,16,95,software
278,278,1,29,7,26,169,software
279,279,12,7,7,15,100,software
280,280,10,18,0,17,97,financial
281,281,10,16,9,23,95,financial
282,282,15,23,5,27,199,pharmaceutical
283,283,18,7,2,1,77,pharmaceutical
284,284,16,25,8,8,148,realestate
285,285,7,8,8,18,161,education
286,286,15,13,9,18,192,pharmaceutical
287,287,4,15,1,13,185,realestate
288,288,1,25,1,22,161,software
289,289,16,18,0,5,159,retail
290,290,3,26,7,22,169,education
291,291,13,18,0,19,109,realestate
292,292,14,2,2,17,193,education
293,293,10,5,8,2,157,pharmaceutical
294,294,15,16,7,22,217,retail
295,295,9,1,4,6,53,software
296,296,12,16,0,27,88,realestate
297,297,13,7,3,23,134,realestate
298,298,12,3,2,26,90,realestate
299,299,12,15,7,10,92,software
300,300,17,5,2,12,192,financial
301,301,11,25,2,14,141,pharmaceutical
302,302,6,5,5,20,74,software
303,303,5,9,7,0,129,financial
304,304,5,22,3,5,110,education
305,305,18,17,7,3,53,software
306,306,15,0,4,19,201,software
307,307,2,23,1,18,202,pharmaceutical
308,308,19,22,6,7,86,retail
309,309,4,1,9,4,167,realestate
310,310,9,20,9,11,86,realestate
311,311,6,17,4,12,50,retail
312,312,0,7,4,1,120,education
313,313,5,19,4,7,110,education
314,314,7,1,7,23,153,realestate
315,315,10,2,7,4,123,realestate
316,316,8,2,7,7,191,pharmaceutical
317,317,4,29,3,26,155,realestate
318,318,1,11,4,29,158,education
319,319,5,8,8,6,109,education
320,320,8,4,3,3,204,retail
321,321,16,1,2,9,152,realestate
322,322,1,21,8,24,161,pharmaceutical
323,323,15,14,9,13,198,retail
324,324,1,21,4,11,158,software
325,325,2,8,3,12,204,software
326,326,3,23,8,25,178,retail
327,327,16,13,8,6,153,pharmaceutical
328,328,7,20,1,0,125,financial
329,329,19,19,6,27,115,education
330,330,13,3,7,10,119,education
331,331,13,0,9,10,122,education
332,332,5,11,0,22,103,education
333,333,2,11,0,26,201,financial
334,334,19,3,4,13,94,realestate
335,335,9,1,8,7,48,pharmaceutical
336,336,4,0,8,24,154,pharmaceutical
337,337,3,21,7,21,203,education
338,338,11,28,4,12,98,software
339,339,17,0,3,13,185,pharmaceutical
340,340,6,18,0,20,55,education
341,341,16,4,2,23,151,software
342,342,8,2,5,17,124,retail
343,343,19,19,3,10,87,realestate
344,344,3,14,8,28,179,pharmaceutical
345,345,11,12,0,20,119,pharmaceutical
346,346,18,4,8,17,54,retail
347,347,5,16,2,19,112,software
348,348,8,14,9,27,152,retail
349,349,6,4,4,16,62,retail
350,350,14,28,8,27,181,education
351,351,6,17,1,26,76,education
352,352,13,0,3,26,146,software
353,353,19,21,0,0,106,pharmaceutical
354,354,16,24,6,5,148,software
355,355,19,7,0,1,117,education
356,356,5,28,7,17,102,pharmaceutical
357,357,11,24,8,25,97,pharmaceutical
358,358,3,5,5,27,171,pharmaceutical
359,359,19,13,2,29,81,pharmaceutical
360,360,7,1,8,2,122,software
361,361,17,22,4,11,192,pharmaceutical
362,362,3,25,5,28,216,financial
363,363,1,27,2,16,159,financial
364,364,15,6,5,15,186,retail
365,365,16,17,4,18,147,pharmaceutical
366,366,18,23,9,6,79,retail
367,367,6,5,4,25,75,financial
368,368,6,22,5,16,42,software
369,369,18,11,9,27,76,education
370,370,1,16,0,26,212,retail
371,371,11,16,7,26,126,realestate
372,372,1,15,5,11,181,retail
373,373,16,25,3,23,162,pharmaceutical
374,374,6,7,9,8,72,financial
375,375,14,11,8,29,178,software
376,376,18,11,5,0,64,realestate
377,377,3,5,0,21,202,retail
378,378,13,0,7,19,95,retail
379,379,9,9,1,16,53,retail
380,380,13,26,5,8,118,education
381,381,5,19,9,15,133,financial
382,382,0,16,9,11,123,software
383,383,5,17,6,14,133,retail
384,384,10,13,3,23,106,realestate
385,385,10,18,7,20,143,pharmaceutical
386,386,11,16,6,0,126,pharmaceutical
387,387,4,27,5,13,177,software
388,388,14,15,7,9,194,realestate
389,389,14,12,9,2,179,software
390,390,16,1,0,2,161,software
391,391,18,20,3,14,101,pharmaceutical
392,392,9,20,7,21,90,education
393,393,15,29,7,5,180,education
394,394,3,11,3,29,209,realestate
395,395,19,7,6,27,102,realestate
396,396,7,12,2,3,154,retail
397,397,9,23,7,11,105,pharmaceutical
398,398,15,12,6,5,192,pharmaceutical
399,399,5,10,4,23,111,education
400,400,0,10,6,14,123,retail
401,401,9,11,8,0,60,financial
402,402,10,20,9,13,150,realestate
403,403,1,0,6,13,193,pharmaceutical
404,404,2,27,7,29,209,retail
405,405,12,16,7,1,109,financial
406,406,7,25,0,9,163,retail
407,407,11,18,4,11,97,education
408,408,4,2,1,5,133,retail
409,409,17,26,4,8,192,pharmaceutical
410,410,7,17,9,8,149,financial
411,411,10,1,0,29,88,financial
412,412,18,3,6,2,81,realestate
413,413,9,20,4,18,88,software
414,414,4,3,7,15,157,realestate
415,415,16,9,0,23,150,software
416,416,8,2,2,0,190,pharmaceutical
417,417,11,5,9,3,116,financial
418,418,18,2,0,29,82,retail
419,419,3,11,4,21,198,realestate
420,420,1,6,4,28,157,pharmaceutical
421,421,7,17,9,27,163,pharmaceutical
422,422,17,10,0,27,191,retail
423,423,10,7,1,17,125,pharmaceutical
424,424,5,7,6,11,94,financial
425,425,10,19,6,17,152,software
426,426,16,29,0,3,148,pharmaceutical
427,427,11,23,2,0,107,pharmaceutical
428,428,14,17,8,14,196,software
429,429,0,14,7,14,119,retail
430,430,1,12,5,19,234,education
431,431,12,5,6,5,83,pharmaceutical
432,432,8,14,2,21,119,realestate
433,433,18,3,8,6,77,realestate
434,434,13,11,0,9,145,retail
435,435,14,10,5,15,182,software
436,436,3,29,5,18,217,realestate
437,437,11,7,8,19,101,realestate
438,438,18,23,0,8,90,pharmaceutical
439,439,14,25,6,12,188,retail
440,440,11,10,6,27,140,pharmaceutical
441,441,13,11,9,21,139,financial
442,442,11,7,0,8,130,education
443,443,15,4,4,20,193,software
444,444,8,26,0,18,122,pharmaceutical
445,445,5,8,4,8,97,education
446,446,17,0,2,13,186,retail
447,447,1,16,0,7,233,pharmaceutical
448,448,7,26,3,29,139,retail
449,449,12,24,1,8,83,pharmaceutical
450,450,13,24,5,20,114,realestate
451,451,8,1,7,10,184,pharmaceutical
452,452,13,1,4,18,140,financial
453,453,14,28,6,15,199,pharmaceutical
454,454,11,7,8,25,137,realestate
455,455,9,27,7,25,50,software
456,456,11,0,9,26,115,realestate
457,457,1,26,0,6,200,realestate
458,458,2,18,9,6,204,realestate
459,459,10,16,6,8,131,financial
460,460,7,25,7,13,126,realestate
461,461,19,10,9,28,101,software
462,462,17,24,2,21,192,retail
463,463,1,12,9,11,200,software
464,464,7,3,1,17,122,education
465,465,0,4,6,18,121,education
466,466,13,14,8,22,101,pharmaceutical
467,467,3,28,0,4,207,software
468,468,0,8,4,29,123,realestate
469,469,2,12,8,20,205,financial
470,470,4,14,6,29,156,pharmaceutical
471,471,3,26,9,7,213,realestate
472,472,9,4,9,0,78,financial
473,473,15,18,4,7,204,realestate
474,474,19,16,7,2,104,financial
475,475,9,4,1,1,73,realestate
476,476,2,18,6,12,204,financial
477,477,7,7,9,5,143,retail
478,478,13,20,1,0,119,realestate
479,479,10,9,8,17,103,education
480,480,11,19,0,8,130,pharmaceutical
481,481,13,14,6,5,118,software
482,482,1,13,0,25,193,education
483,483,2,1,8,20,199,financial
484,484,3,1,8,1,204,financial
485,485,3,25,6,14,194,software
486,486,10,4,8,26,152,realestate
487,487,9,10,2,11,101,education
488,488,19,27,5,10,112,retail
489,489,0,22,0,6,120,software
490,490,5,16,5,19,134,education
491,491,8,29,6,21,182,retail
492,492,15,22,4,13,182,retail
493,493,16,27,9,28,150,software
494,494,18,28,0,19,90,pharmaceutical
495,495,18,12,4,23,58,financial
496,496,17,2,3,12,183,software
497,497,12,25,8,11,101,financial
498,498,4,15,3,7,162,pharmaceutical
499,499,15,10,9,16,178,software
500,500,0,28,7,2,119,retail
501,501,5,6,1,29,115,realestate
502,502,5,15,8,2,132,education
503,503,9,7,3,13,74,retail
504,504,0,2,2,12,119,realestate
505,505,12,3,8,0,88,financial
506,506,7,3,9,23,138,retail
507,507,0,22,7,25,122,pharmaceutical
508,508,12,7,0,12,101,financial
509,509,5,27,2,22,120,software
510,510,1,6,4,19,225,retail
511,511,5,9,3,16,140,software
512,512,8,16,7,3,157,education
513,513,8,5,5,28,163,education
514,514,13,26,8,13,108,financial
515,515,9,21,1,1,75,education
516,516,10,2,1,4,141,pharmaceutical
517,517,17,12,9,19,197,financial
518,518,9,0,3,18,96,education
519,519,0,3,6,17,122,education
520,520,9,21,0,8,48,financial
521,521,11,8,4,12,139,pharmaceutical
522,522,13,10,0,29,88,pharmaceutical
523,523,16,4,0,1,159,pharmaceutical
524,524,9,20,6,19,97,pharmaceutical
525,525,12,19,2,19,82,education
526,526,18,25,7,0,93,financial
527,527,5,24,1,10,105,financial
528,528,18,11,0,2,95,education
529,529,16,21,3,21,151,financial
530,530,14,19,4,15,198,pharmaceutical
531,531,15,18,1,25,190,education
532,532,11,23,6,0,139,education
533,533,4,6,7,16,140,retail
534,534,16,27,1,19,149,realestate
535,535,14,29,0,23,198,education
536,536,2,14,1,3,214,software
537,537,7,22,8,22,165,realestate
538,538,13,3,8,9,114,software
539,539,6,18,7,11,42,financial
540,540,7,11,5,9,163,pharmaceutical
541,541,3,11,8,8,169,education
542,542,9,7,5,26,99,realestate
543,543,8,11,7,19,201,financial
544,544,10,25,2,22,127,education
545,545,19,0,3,11,108,pharmaceutical
546,546,12,25,2,23,89,software
547,547,11,1,0,0,96,education
548,548,10,29,4,28,91,pharmaceutical
549,549,17,17,5,28,203,pharmaceutical
550,550,1,4,2,23,182,realestate
551,551,3,11,5,26,189,pharmaceutical
552,552,12,6,6,12,100,education
553,553,11,7,7,1,136,education
554,554,11,10,3,22,93,retail
555,555,10,16,7,4,104,retail
556,556,17,2,2,25,186,education
557,557,10,6,8,29,130,pharmaceutical
558,558,10,27,1,6,136,realestate
559,559,5,23,0,13,96,retail
560,560,13,20,1,29,111,financial
561,561,10,25,3,18,145,software
562,562,9,6,0,5,103,realestate
563,563,15,27,6,22,206,pharmaceutical
564,564,13,10,8,24,92,realestate
565,565,15,23,4,8,186,realestate
566,566,10,23,0,7,97,software
567,567,17,22,5,8,190,financial
568,568,12,8,0,23,99,financial
569,569,13,25,3,5,119,education
570,570,10,28,9,8,136,education
571,571,6,2,9,27,50,financial
572,572,10,28,2,2,132,pharmaceutical
573,573,19,17,3,21,82,retail
574,574,12,17,8,19,81,software
575,575,14,17,4,21,189,financial
576,576,5,18,1,19,98,realestate
577,577,1,0,1,24,215,software
578,578,0,1,8,20,121,pharmaceutical
579,579,9,22,1,11,45,retail
580,580,0,19,1,4,122,retail
581,581,11,27,6,29,123,software
582,582,18,11,9,2,94,retail
583,583,7,28,4,1,157,education
584,584,2,6,0,11,216,software
585,585,19,6,7,28,95,education
586,586,9,4,3,19,86,retail
587,587,16,17,8,3,151,financial
588,588,0,26,0,14,119,pharmaceutical
589,589,4,7,2,5,145,education
590,590,9,27,0,13,56,financial
591,591,17,20,6,1,199,software
592,592,12,2,2,26,101,pharmaceutical
593,593,10,15,7,21,154,software
594,594,6,6,8,27,50,retail
595,595,5,17,6,25,93,pharmaceutical
596,596,8,18,0,23,121,software
597,597,13,7,6,28,139,financial
598,598,2,20,7,9,216,financial
599,599,10,21,7,0,142,education
600,600,6,25,8,11,73,software
601,601,16,26,0,29,153,retail
602,602,7,27,2,11,139,retail
603,603,2,18,0,19,199,realestate
604,604,17,5,9,28,194,realestate
605,605,3,19,6,12,174,software
606,606,15,4,1,7,215,education
607,607,2,4,2,2,209,realestate
608,608,8,14,8,24,142,education
609,609,10,9,0,9,123,software
610,610,4,22,3,28,152,education
611,611,9,2,8,16,71,retail
612,612,12,22,1,29,90,software
613,613,19,22,8,13,113,realestate
614,614,3,17,6,4,212,pharmaceutical
615,615,6,5,2,16,58,software
616,616,1,15,2,9,214,retail
617,617,15,0,9,26,186,education
618,618,9,4,4,19,79,retail
619,619,3,23,1,17,170,education
620,620,14,1,2,4,198,retail
621,621,16,29,6,18,151,realestate
622,622,9,6,0,24,90,realestate
623,623,3,23,8,22,212,education
624,624,14,25,1,6,180,pharmaceutical
625,625,10,26,7,28,108,software
626,626,14,16,3,19,197,pharmaceutical
627,627,0,6,2,18,122,financial
628,628,9,20,0,9,50,realestate
629,629,7,8,9,23,139,software
630,630,6,22,6,12,57,realestate
631,631,13,17,4,5,104,financial
632,632,4,26,6,17,134,software
633,633,18,15,4,18,95,education
634,634,7,8,7,23,130,pharmaceutical
635,635,14,22,9,21,190,financial
636,636,1,2,7,8,222,software
637,637,8,10,0,9,135,software
638,638,17,17,4,6,204,software
639,639,10,25,9,24,156,retail
640,640,1,29,9,11,227,education
641,641,15,14,9,13,190,realestate
642,642,8,26,7,25,126,retail
643,643,7,5,5,24,150,retail
644,644,8,7,3,22,200,financial
645,645,12,14,7,8,106,retail
646,646,9,20,3,11,76,pharmaceutical
647,647,18,27,2,4,51,retail
648,648,7,21,9,7,166,software
649,649,12,17,9,5,93,software
650,650,18,19,1,12,75,realestate
651,651,13,1,8,15,120,realestate
652,652,1,18,8,12,222,software
653,653,3,10,0,25,213,financial
654,654,19,25,8,10,119,pharmaceutical
655,655,10,5,6,21,132,software
656,656,2,1,5,5,203,education
657,657,0,21,6,29,120,software
658,658,16,18,6,22,147,education
659,659,18,18,1,6,70,retail
660,660,2,4,7,11,203,education
661,661,9,10,9,2,57,education
662,662,7,9,6,22,136,education
663,663,15,5,0,9,206,financial
664,664,10,11,1,10,145,education
665,665,11,12,8,2,119,retail
666,666,10,24,1,8,102,retail
667,667,15,4,0,19,216,pharmaceutical
668,668,6,20,5,9,79,retail
669,669,18,20,9,5,58,realestate
670,670,15,16,6,4,214,realestate
671,671,1,14,7,4,220,realestate
672,672,18,6,5,26,68,pharmaceutical
673,673,3,28,1,20,193,pharmaceutical
674,674,5,15,4,14,104,realestate
675,675,6,11,1,17,68,education
676,676,2,8,5,4,203,pharmaceutical
677,677,11,16,3,2,106,retail
678,678,16,21,6,23,161,retail
679,679,2,15,4,4,209,realestate
680,680,6,6,7,25,72,realestate
681,681,17,21,8,1,185,education
682,682,12,27,8,10,96,pharmaceutical
683,683,18,10,0,13,91,retail
684,684,11,19,3,4,136,pharmaceutical
685,685,9,24,4,15,79,software
686,686,2,16,0,25,217,realestate
687,687,17,17,1,21,183,pharmaceutical
688,688,18,21,8,4,65,financial
689,689,7,6,0,6,141,pharmaceutical
690,690,4,19,7,16,149,software
691,691,7,19,9,17,130,software
692,692,14,24,8,6,180,financial
693,693,18,18,0,21,87,software
694,694,8,24,6,14,175,education
695,695,18,19,6,2,102,software
696,696,0,6,3,7,123,realestate
697,697,17,3,4,6,201,education
698,698,12,25,3,7,80,education
699,699,13,1,7,10,135,pharmaceutical
700,700,10,19,0,8,89,pharmaceutical
701,701,1,7,9,28,180,pharmaceutical
702,702,17,1,1,8,203,realestate
703,703,14,20,6,9,183,pharmaceutical
704,704,13,22,8,2,140,education
705,705,6,6,8,10,52,realestate
706,706,9,13,4,12,92,financial
707,707,19,9,0,3,79,realestate
708,708,10,10,4,12,99,retail
709,709,8,26,2,10,115,realestate
710,710,19,18,8,29,92,education
711,711,9,12,0,28,46,education
712,712,3,23,2,6,179,financial
713,713,14,27,9,9,181,realestate
714,714,3,3,1,0,185,pharmaceutical
715,715,5,4,0,11,127,realestate
716,716,16,5,3,15,161,pharmaceutical
717,717,6,19,6,2,48,software
718,718,16,11,8,25,149,software
719,719,18,24,2,1,59,realestate
720,720,8,16,8,22,182,financial
721,721,11,27,0,7,133,financial
722,722,10,15,9,14,107,retail
723,723,0,11,2,23,122,education
724,724,14,23,7,3,180,pharmaceutical
725,725,4,23,2,21,191,realestate
726,726,19,3,8,15,88,realestate
727,727,19,6,1,14,109,pharmaceutical
728,728,17,5,4,22,190,software
729,729,18,24,9,14,53,realestate
730,730,5,0,9,19,106,software
731,731,3,9,2,26,180,pharmaceutical
732,732,12,8,4,15,82,realestate
733,733,5,23,0,6,132,pharmaceutical
734,734,6,29,3,17,74,retail
735,735,7,20,4,16,139,pharmaceutical
736,736,12,3,1,3,89,software
737,737,17,24,7,26,199,retail
738,738,18,8,9,22,58,pharmaceutical
739,739,18,23,0,26,60,financial
740,740,19,20,7,1,79,realestate
741,741,3,18,9,15,193,financial
742,742,3,1,1,2,216,pharmaceutical
743,743,1,29,5,17,195,education
744,744,14,28,4,7,178,education
745,745,4,28,3,0,156,realestate
746,746,3,22,1,5,202,software
747,747,15,8,4,3,187,software
748,748,7,24,4,20,135,education
749,749,9,25,0,27,59,retail
750,750,2,21,4,21,212,pharmaceutical
751,751,8,15,1,15,192,software
752,752,13,20,0,19,116,retail
753,753,17,21,3,4,202,education
754,754,6,10,9,29,57,pharmaceutical
755,755,1,17,2,17,213,realestate
756,756,5,0,3,13,132,retail
757,757,13,14,6,20,114,retail
758,758,13,1,3,20,102,realestate
759,759,6,28,1,29,81,education
760,760,19,27,0,0,106,education
761,761,5,27,5,18,122,financial
762,762,18,1,5,6,59,software
763,763,5,4,2,25,112,financial
764,764,1,24,0,21,211,education
765,765,1,20,8,10,214,software
766,766,0,14,4,5,120,education
767,767,15,5,5,14,180,education
768,768,4,13,4,0,184,software
769,769,2,17,4,5,213,software
770,770,19,18,2,24,81,education
771,771,1,0,6,11,220,pharmaceutical
772,772,17,13,4,9,188,software
773,773,0,2,6,9,121,education
774,774,16,0,1,14,149,software
775,775,1,29,0,4,215,financial
776,776,19,1,1,0,90,education
777,777,1,7,3,7,209,education
778,778,1,8,1,9,222,retail
779,779,16,24,8,1,148,realestate
780,780,0,15,1,20,120,financial
781,781,19,13,2,3,73,pharmaceutical
782,782,11,17,2,17,130,software
783,783,19,26,8,11,119,financial
784,784,13,11,4,8,133,realestate
785,785,8,10,8,9,141,financial
786,786,5,10,5,5,96,pharmaceutical
787,787,9,11,2,21,98,financial
788,788,3,22,9,25,165,pharmaceutical
789,789,6,29,0,16,84,realestate
790,790,5,26,9,17,118,financial
791,791,11,1,3,2,116,realestate
792,792,4,7,2,14,193,financial
793,793,6,9,9,25,52,financial
794,794,9,4,5,6,44,software
795,795,1,18,4,6,167,realestate
796,796,11,21,1,6,99,financial
797,797,10,13,4,20,145,software
798,798,12,1,4,16,95,retail
799,799,6,14,0,3,58,retail
800,800,17,28,7,27,195,pharmaceutical
801,801,8,0,6,13,139,pharmaceutical
802,802,4,29,9,20,161,retail
803,803,11,25,1,5,124,realestate
804,804,9,6,6,3,105,financial
805,805,2,17,0,2,216,financial
806,806,1,3,0,17,189,realestate
807,807,0,12,1,9,121,financial
808,808,14,29,8,8,195,pharmaceutical
809,809,19,17,2,4,77,pharmaceutical
810,810,8,6,1,13,192,retail
811,811,19,11,1,16,106,software
812,812,12,7,3,20,110,education
813,813,4,14,8,23,177,retail
814,814,17,17,8,19,185,pharmaceutical
815,815,15,18,0,11,214,education
816,816,8,9,8,15,178,financial
817,817,0,4,0,11,120,software
818,818,1,15,0,1,172,realestate
819,819,9,7,1,5,59,retail
820,820,9,17,7,21,85,pharmaceutical
821,821,3,14,3,17,179,software
822,822,13,11,1,6,146,software
823,823,6,19,8,25,86,financial
824,824,14,5,5,28,196,software
825,825,6,8,1,15,72,software
826,826,0,1,6,6,122,financial
827,827,4,5,0,11,194,software
828,828,2,26,9,17,201,education
829,829,8,17,1,11,151,education
830,830,17,4,8,27,194,financial
831,831,0,22,9,10,119,pharmaceutical
832,832,19,9,8,11,71,financial
833,833,0,5,1,23,123,education
834,834,5,23,0,21,139,software
835,835,14,21,1,13,182,realestate
836,836,10,7,6,11,147,education
837,837,14,18,9,18,188,retail
838,838,15,1,6,3,215,education
839,839,4,3,8,29,177,realestate
840,840,11,12,5,16,91,retail
841,841,2,26,5,26,219,pharmaceutical
842,842,3,1,7,6,167,realestate
843,843,16,7,7,27,156,pharmaceutical
844,844,18,21,3,7,88,financial
845,845,0,9,7,20,119,financial
846,846,5,15,1,6,138,retail
847,847,7,14,8,3,164,financial
848,848,6,29,1,0,82,realestate
849,849,2,5,6,14,200,software
850,850,12,25,8,5,96,software
851,851,16,28,9,2,152,pharmaceutical
852,852,11,25,8,17,103,education
853,853,15,1,1,3,188,software
854,854,2,12,5,5,205,retail
855,855,4,13,2,6,177,realestate
856,856,15,4,4,8,217,education
857,857,16,16,8,19,146,education
858,858,14,4,1,27,179,software
859,859,4,28,6,3,136,pharmaceutical
860,860,8,1,9,22,154,realestate
861,861,2,24,5,1,206,financial
862,862,17,1,2,10,184,retail
863,863,17,4,5,26,183,software
864,864,14,0,3,14,190,financial
865,865,19,5,0,25,96,pharmaceutical
866,866,18,12,3,18,82,realestate
867,867,10,7,4,23,117,education
868,868,12,4,2,20,85,realestate
869,869,12,1,8,20,92,pharmaceutical
870,870,2,22,0,5,217,software
871,871,0,3,3,7,120,pharmaceutical
872,872,6,2,9,24,61,realestate
873,873,16,27,1,5,155,education
874,874,12,11,9,28,90,financial
875,875,4,11,0,2,177,pharmaceutical
876,876,18,16,4,22,90,education
877,877,2,16,7,22,219,education
878,878,2,18,9,13,215,realestate
879,879,17,5,6,13,203,pharmaceutical
880,880,11,24,5,9,127,retail
881,881,4,3,1,16,144,education
882,882,17,14,3,16,192,education
883,883,7,21,8,28,121,financial
884,884,15,8,5,5,188,education
885,885,8,2,3,3,199,realestate
886,886,7,18,0,6,143,realestate
887,887,15,1,9,12,218,retail
888,888,0,22,9,8,119,financial
889,889,16,10,4,11,158,pharmaceutical
890,890,15,7,6,17,210,retail
891,891,9,27,5,2,77,retail
892,892,8,20,0,20,126,retail
893,893,6,6,7,25,45,financial
894,894,13,25,4,26,95,financial
895,895,12,28,3,9,93,financial
896,896,18,1,9,8,61,pharmaceutical
897,897,6,11,5,27,62,retail
898,898,4,8,1,25,157,retail
899,899,16,19,0,0,151,education
900,900,16,17,9,24,159,software
901,901,8,22,5,5,196,education
902,902,17,16,6,14,188,pharmaceutical
903,903,8,17,8,6,124,realestate
904,904,10,21,4,22,119,financial
905,905,19,23,7,11,71,education
906,906,11,20,4,29,108,financial
907,907,14,12,5,15,192,retail
908,908,9,16,4,0,97,realestate
909,909,8,25,9,12,163,retail
910,910,17,25,6,6,186,pharmaceutical
911,911,0,20,7,29,122,financial
912,912,3,22,6,13,177,pharmaceutical
913,913,16,6,9,25,151,retail
914,914,0,9,0,18,120,software
915,915,5,18,5,27,102,software
916,916,8,25,4,15,202,education
917,917,16,20,5,11,152,education
918,918,2,2,1,24,212,realestate
919,919,12,27,2,24,90,pharmaceutical
920,920,13,19,2,2,107,realestate
921,921,11,5,2,23,111,financial
922,922,7,16,3,5,144,retail
923,923,10,16,9,6,144,education
924,924,15,2,8,3,179,financial
925,925,14,5,2,0,197,software
926,926,0,8,6,13,120,software
927,927,15,3,3,7,189,realestate
928,928,6,18,1,7,74,financial
929,929,5,5,5,22,138,education
930,930,10,19,6,0,138,software
931,931,8,28,0,29,199,retail
932,932,18,7,6,6,71,pharmaceutical
933,933,10,27,7,19,159,education
934,934,9,8,4,22,58,retail
935,935,11,4,3,17,96,software
936,936,1,21,0,29,189,financial
937,937,2,28,1,26,199,software
938,938,2,4,5,4,204,education
939,939,19,14,3,28,83,pharmaceutical
940,940,18,21,1,20,83,education
941,941,0,12,9,27,122,education
942,942,10,5,5,1,93,financial
943,943,0,25,7,8,120,retail
944,944,9,7,0,14,98,realestate
945,945,18,14,7,17,85,software
946,946,1,18,4,10,218,pharmaceutical
947,947,3,28,3,10,202,retail
948,948,15,29,2,16,192,education
949,949,0,10,8,8,120,software
950,950,8,7,0,23,139,education
951,951,4,6,8,5,174,pharmaceutical
952,952,18,4,7,26,58,pharmaceutical
953,953,0,26,4,29,119,pharmaceutical
954,954,3,29,2,20,189,software
955,955,16,21,2,23,149,financial
956,956,19,10,2,16,114,realestate
957,957,19,3,0,24,111,pharmaceutical
958,958,7,16,4,27,166,realestate
959,959,13,24,1,13,113,education
960,960,8,11,5,2,116,realestate
961,961,2,18,2,16,207,realestate
962,962,19,11,9,20,74,financial
963,963,9,2,1,14,79,software
964,964,16,4,3,23,157,realestate
965,965,17,12,5,2,202,education
966,966,6,29,6,25,74,pharmaceutical
967,967,3,2,5,6,184,education
968,968,1,6,2,28,187,retail
969,969,18,23,8,22,61,software
970,970,10,23,4,12,137,software
971,971,11,5,2,15,131,retail
972,972,14,25,2,21,195,realestate
973,973,19,12,6,16,112,realestate
974,974,0,28,1,27,121,software
975,975,9,5,6,24,51,pharmaceutical
976,976,15,6,0,17,196,education
977,977,8,29,3,21,116,education
978,978,13,10,5,15,129,realestate
979,979,4,19,2,9,168,realestate
980,980,18,25,2,13,56,software
981,981,15,14,9,9,202,pharmaceutical
982,982,0,22,1,20,120,financial
983,983,5,27,3,21,117,pharmaceutical
984,984,19,7,8,2,114,realestate
985,985,15,29,3,4,215,retail
986,986,5,22,4,0,130,software
987,987,6,26,6,29,53,software
988,988,12,23,1,5,101,education
989,989,17,23,0,20,204,financial
990,990,14,20,7,25,197,financial
991,991,2,21,6,21,215,financial
992,992,2,14,5,16,202,financial
993,993,11,3,3,16,130,software
994,994,1,8,5,10,231,financial
995,995,7,13,7,11,154,software
996,996,5,27,1,24,105,software
997,997,2,11,7,5,207,realestate
998,998,11,10,8,2,121,software
999,999,7,20,7,13,149,software
1000,1000,12,16,0,7,91,financial
1001,1001,17,7,8,2,188,education
1002,1002,16,8,7,17,160,education
1003,1003,9,24,8,27,59,education
1004,1004,4,29,8,20,180,realestate
1005,1005,0,24,6,28,121,realestate
1006,1006,0,13,0,20,120,retail
1007,1007,3,9,4,13,188,software
1008,1008,7,24,2,26,163,realestate
1009,1009,8,17,4,11,125,financial
1010,1010,6,9,9,11,77,realestate
1011,1011,1,7,8,6,191,retail
1012,1012,8,28,8,27,183,retail
1013,1013,11,2,0,25,122,software
1014,1014,11,18,1,27,96,education
1015,1015,8,6,4,9,192,financial
1016,1016,0,23,4,3,123,software
1017,1017,4,17,8,6,169,education
1018,1018,19,27,4,9,77,pharmaceutical
1019,1019,1,21,7,1,182,pharmaceutical
1020,1020,8,23,8,9,181,software
1021,1021,7,18,0,7,156,education
1022,1022,4,3,7,19,159,software
1023,1023,7,3,3,15,132,retail
1024,1024,2,18,7,13,215,retail
1025,1025,11,4,9,23,101,software
1026,1026,15,13,1,5,186,financial
1027,1027,3,23,4,4,189,retail
1028,1028,2,20,9,27,212,software
1029,1029,5,25,5,18,128,financial
1030,1030,5,3,7,26,136,realestate
1031,1031,7,7,5,17,149,pharmaceutical
1032,1032,4,7,2,14,177,retail
1033,1033,1,8,8,2,213,financial
1034,1034,7,12,5,10,167,pharmaceutical
1035,1035,18,11,2,8,64,realestate
1036,1036,1,7,2,1,230,retail
1037,1037,17,5,6,6,205,education
1038,1038,18,20,5,12,88,realestate
1039,1039,6,22,3,6,62,software
1040,1040,19,13,0,19,98,realestate
1041,1041,1,26,9,7,202,education
1042,1042,18,20,8,11,82,software
1043,1043,9,9,7,10,99,pharmaceutical
1044,1044,2,24,1,20,206,retail
1045,1045,14,6,9,27,183,financial
1046,1046,13,16,6,0,101,financial
1047,1047,2,25,8,8,206,realestate
1048,1048,1,2,4,14,169,financial
1049,1049,8,5,6,28,189,realestate
1050,1050,12,12,8,4,81,pharmaceutical
1051,1051,17,25,9,12,199,pharmaceutical
1052,1052,6,22,1,25,46,pharmaceutical
1053,1053,15,2,0,20,217,software
1054,1054,6,10,0,20,61,education
1055,1055,18,0,0,11,65,education
1056,1056,10,23,3,3,135,retail
1057,1057,2,24,7,25,201,software
1058,1058,14,28,8,7,189,retail
1059,1059,5,17,5,17,114,pharmaceutical
1060,1060,17,28,2,20,185,software
1061,1061,9,13,3,15,92,retail
1062,1062,8,7,1,25,127,education
1063,1063,3,11,9,19,183,education
1064,1064,10,11,4,11,100,education
1065,1065,5,17,5,3,97,education
1066,1066,15,5,0,1,194,retail
1067,1067,13,14,0,20,94,pharmaceutical
1068,1068,0,2,7,25,119,education
1069,1069,4,3,1,29,173,realestate
1070,1070,9,4,0,10,56,pharmaceutical
1071,1071,19,13,3,8,94,realestate
1072,1072,17,11,3,15,194,education
1073,1073,0,8,1,13,121,pharmaceutical
1074,1074,4,5,7,5,132,education
1075,1075,9,9,0,18,75,financial
1076,1076,19,7,6,17,99,retail
1077,1077,1,12,2,19,213,pharmaceutical
1078,1078,5,27,0,14,135,financial
1079,1079,9,12,5,12,84,education
1080,1080,13,4,0,21,139,retail
1081,1081,9,13,0,20,70,education
1082,1082,0,7,4,26,122,education
1083,1083,16,0,0,8,152,education
1084,1084,11,6,0,24,124,pharmaceutical
1085,1085,7,27,6,12,159,retail
1086,1086,8,16,2,21,204,education
1087,1087,8,29,2,29,161,retail
1088,1088,19,1,6,17,71,education
1089,1089,13,0,0,24,144,realestate
1090,1090,8,22,8,2,189,realestate
1091,1091,0,19,2,1,122,realestate
1092,1092,9,26,1,4,98,financial
1093,1093,0,17,3,18,121,financial
1094,1094,7,13,2,3,149,education
1095,1095,19,19,2,28,112,education
1096,1096,6,28,5,29,68,software
1097,1097,18,3,1,26,72,pharmaceutical
1098,1098,12,20,8,29,90,pharmaceutical
1099,1099,18,21,7,28,52,retail
1100,1100,9,5,1,2,84,education
1101,1101,14,8,5,9,181,realestate
1102,1102,14,27,7,27,198,pharmaceutical
1103,1103,0,1,0,12,119,education
1104,1104,10,24,3,0,107,realestate
1105,1105,12,28,6,24,99,software
1106,1106,16,19,3,5,160,software
1107,1107,12,26,8,5,99,retail
1108,1108,0,6,2,8,121,pharmaceutical
1109,1109,12,23,1,26,102,realestate
1110,1110,0,0,5,11,123,software
1111,1111,11,22,9,20,105,realestate
1112,1112,6,12,2,3,56,education
1113,1113,18,2,9,14,73,financial
1114,1114,19,1,7,25,112,software
1115,1115,5,16,0,18,95,software
1116,1116,1,19,5,25,214,education
1117,1117,4,3,5,0,180,realestate
1118,1118,17,21,1,14,200,education
1119,1119,13,6,7,1,119,financial
1120,1120,18,7,8,14,86,pharmaceutical
1121,1121,19,20,6,13,94,education
1122,1122,11,2,4,3,97,realestate
1123,1123,1,15,9,29,198,realestate
1124,1124,3,20,8,2,208,financial
1125,1125,8,1,1,8,149,financial
1126,1126,11,4,2,6,100,software
1127,1127,3,23,3,13,200,software
1128,1128,16,8,3,6,153,financial
1129,1129,15,28,7,10,218,software
1130,1130,2,14,7,13,213,pharmaceutical
1131,1131,19,26,5,0,114,software
1132,1132,1,6,5,25,200,education
1133,1133,11,14,3,23,123,education
1134,1134,1,28,3,25,228,retail
1135,1135,2,13,6,11,218,software
1136,1136,10,15,3,25,155,education
1137,1137,1,16,1,12,182,retail
1138,1138,18,21,2,24,62,financial
1139,1139,11,19,7,14,135,pharmaceutical
1140,1140,0,15,2,16,120,pharmaceutical
1141,1141,19,1,4,25,92,financial
1142,1142,14,10,7,18,178,realestate
1143,1143,18,8,1,1,57,realestate
1144,1144,6,11,0,22,65,financial
1145,1145,8,17,2,5,115,education
1146,1146,17,14,1,21,198,software
1147,1147,2,28,7,25,202,financial
1148,1148,16,15,3,3,150,education
1149,1149,9,26,5,28,63,pharmaceutical
1150,1150,10,0,8,9,97,education
1151,1151,5,9,0,27,130,education
1152,1152,9,11,4,2,76,realestate
1153,1153,8,23,5,8,133,pharmaceutical
1154,1154,9,14,2,11,93,retail
1155,1155,11,3,6,27,91,retail
1156,1156,18,5,9,20,98,financial
1157,1157,18,27,1,3,90,financial
1158,1158,3,2,5,25,182,education
1159,1159,3,4,9,0,194,financial
1160,1160,12,24,6,1,102,education
1161,1161,16,11,9,3,146,retail
1162,1162,9,7,4,13,96,pharmaceutical
1163,1163,1,27,8,22,206,financial
1164,1164,11,17,0,0,108,realestate
1165,1165,6,7,4,6,47,education
1166,1166,5,0,4,0,136,financial
1167,1167,17,25,9,1,202,education
1168,1168,13,3,3,22,116,pharmaceutical
1169,1169,15,8,7,0,184,realestate
1170,1170,10,13,6,23,137,retail
1171,1171,2,27,3,6,204,education
1172,1172,7,8,6,15,149,software
1173,1173,17,0,1,26,192,financial
1174,1174,10,20,8,22,122,software
1175,1175,4,4,4,20,158,retail
1176,1176,6,17,0,9,50,realestate
1177,1177,9,0,5,5,100,software
1178,1178,7,15,0,5,152,financial
1179,1179,19,19,7,12,119,pharmaceutical
1180,1180,11,7,6,9,123,education
1181,1181,0,23,5,23,120,pharmaceutical
1182,1182,3,25,5,12,200,pharmaceutical
1183,1183,16,7,4,3,154,software
1184,1184,1,23,4,10,229,realestate
1185,1185,12,4,4,29,81,education
1186,1186,16,6,2,26,150,pharmaceutical
1187,1187,3,13,7,4,171,retail
1188,1188,3,7,1,4,210,software
1189,1189,10,1,1,22,106,realestate
1190,1190,8,13,5,13,165,realestate
1191,1191,3,18,8,15,197,software
1192,1192,18,22,9,6,98,realestate
1193,1193,1,7,1,6,218,software
1194,1194,6,18,1,1,84,financial
1195,1195,11,6,9,17,106,pharmaceutical
1196,1196,8,29,0,20,155,software
1197,1197,12,22,0,10,107,retail
1198,1198,7,10,9,1,142,education
1199,1199,17,24,2,6,183,education
1200,1200,19,12,3,15,108,software
1201,1201,2,27,7,7,206,realestate
1202,1202,8,16,4,7,134,pharmaceutical
1203,1203,4,21,7,12,161,pharmaceutical
1204,1204,6,17,8,22,62,software
1205,1205,15,23,7,12,201,software
1206,1206,5,12,2,29,131,realestate
1207,1207,8,20,4,25,172,realestate
1208,1208,19,10,1,28,74,retail
1209,1209,12,4,1,8,108,retail
1210,1210,11,0,8,12,113,education
1211,1211,17,29,2,25,198,software
1212,1212,18,27,4,16,93,retail
1213,1213,19,22,1,24,117,education
1214,1214,11,25,8,20,93,realestate
1215,1215,2,0,3,29,212,retail
1216,1216,17,29,0,25,187,realestate
1217,1217,16,20,7,24,152,retail
1218,1218,19,22,8,26,87,pharmaceutical
1219,1219,4,14,4,1,174,retail
1220,1220,9,19,3,29,88,retail
1221,1221,15,8,5,2,201,pharmaceutical
1222,1222,6,16,5,18,54,education
1223,1223,3,14,4,7,207,software
1224,1224,18,21,2,22,88,realestate
1225,1225,3,14,0,7,179,education
1226,1226,19,21,1,14,90,retail
1227,1227,6,20,3,23,44,retail
1228,1228,7,25,2,7,136,pharmaceutical
1229,1229,10,12,1,10,153,pharmaceutical
1230,1230,3,3,9,6,186,financial
1231,1231,19,15,7,29,105,financial
1232,1232,12,16,9,14,89,financial
1233,1233,3,20,8,17,206,realestate
1234,1234,13,29,2,28,92,retail
1235,1235,13,29,5,19,132,retail
1236,1236,8,7,9,9,129,pharmaceutical
1237,1237,9,28,3,27,103,realestate
1238,1238,11,29,8,3,106,education
1239,1239,5,28,7,10,115,pharmaceutical
1240,1240,7,23,1,16,145,software
1241,1241,1,8,0,16,205,software
1242,1242,3,22,4,9,202,realestate
1243,1243,0,23,5,20,121,retail
1244,1244,14,0,0,5,196,education
1245,1245,7,21,5,6,141,education
1246,1246,19,6,5,26,74,software
1247,1247,12,13,4,5,101,realestate
1248,1248,3,27,7,9,212,software
1249,1249,11,3,2,9,125,financial
1250,1250,14,25,5,5,186,software
1251,1251,7,3,7,3,130,financial
1252,1252,0,29,6,2,120,software
1253,1253,19,21,8,10,107,retail
1254,1254,9,12,1,12,64,retail
1255,1255,8,9,2,10,208,education
1256,1256,7,29,9,17,137,financial
1257,1257,9,15,3,23,73,software
1258,1258,14,22,3,1,179,financial
1259,1259,13,13,6,26,146,education
1260,1260,16,17,5,29,159,education
1261,1261,5,25,8,17,93,financial
1262,1262,12,6,6,6,80,software
1263,1263,13,26,5,21,130,education
1264,1264,0,2,1,2,120,realestate
1265,1265,9,3,9,18,103,software
1266,1266,4,24,3,22,189,realestate
1267,1267,18,18,3,15,103,realestate
1268,1268,10,20,4,26,95,education
1269,1269,15,2,9,28,220,retail
1270,1270,11,13,2,16,95,realestate
1271,1271,17,7,0,26,192,pharmaceutical
1272,1272,15,26,2,9,215,software
1273,1273,17,20,5,19,197,software
1274,1274,10,19,6,20,89,financial
1275,1275,19,13,8,2,118,pharmaceutical
1276,1276,10,15,5,14,107,realestate
1277,1277,16,1,8,18,152,education
1278,1278,11,3,6,14,111,realestate
1279,1279,16,14,5,21,147,retail
1280,1280,2,15,7,7,203,retail
1281,1281,13,29,4,14,119,realestate
1282,1282,10,14,5,25,120,pharmaceutical
1283,1283,19,12,8,20,83,pharmaceutical
1284,1284,5,4,5,16,123,education
1285,1285,16,22,7,18,149,financial
1286,1286,8,12,5,5,122,financial
1287,1287,8,9,7,0,119,pharmaceutical
1288,1288,3,6,4,25,170,retail
1289,1289,7,5,1,15,164,realestate
1290,1290,2,21,0,8,205,education
1291,1291,13,25,8,3,96,pharmaceutical
1292,1292,4,0,3,21,188,software
1293,1293,0,11,8,0,119,pharmaceutical
1294,1294,3,0,0,7,186,education
1295,1295,0,18,1,19,123,education
1296,1296,6,29,6,13,51,software
1297,1297,17,7,3,1,196,software
1298,1298,17,5,0,22,201,financial
1299,1299,15,26,2,0,191,software
1300,1300,3,22,4,20,199,financial
1301,1301,16,25,0,27,155,education
1302,1302,14,7,0,15,199,realestate
1303,1303,11,22,8,3,130,realestate
1304,1304,11,0,5,1,106,education
1305,1305,3,21,6,15,215,realestate
1306,1306,8,23,3,29,136,pharmaceutical
1307,1307,7,5,5,29,142,pharmaceutical
1308,1308,6,26,2,20,64,financial
1309,1309,17,8,4,14,189,software
1310,1310,18,28,3,22,85,retail
1311,1311,7,11,6,27,122,financial
1312,1312,13,14,2,11,137,realestate
1313,1313,15,4,9,10,196,retail
1314,1314,9,25,4,14,44,financial
1315,1315,17,20,3,4,190,software
1316,1316,19,27,0,27,106,realestate
1317,1317,15,29,6,9,183,retail
1318,1318,12,19,9,16,81,pharmaceutical
1319,1319,0,1,1,29,121,pharmaceutical
1320,1320,16,21,6,18,146,pharmaceutical
1321,1321,14,29,5,15,182,realestate
1322,1322,16,23,2,20,156,pharmaceutical
1323,1323,5,22,0,4,118,realestate
1324,1324,6,11,9,6,64,pharmaceutical
1325,1325,10,8,3,22,121,software
1326,1326,16,4,6,15,150,financial
1327,1327,8,2,3,14,153,retail
1328,1328,0,29,6,20,122,pharmaceutical
1329,1329,6,9,9,8,55,pharmaceutical
1330,1330,16,12,3,19,149,education
1331,1331,19,17,3,14,109,realestate
1332,1332,3,5,0,26,193,education
1333,1333,17,3,1,22,193,financial
1334,1334,8,25,1,19,169,realestate
1335,1335,6,5,2,1,69,financial
1336,1336,3,5,8,20,165,pharmaceutical
1337,1337,15,4,8,24,204,financial
1338,1338,17,26,8,21,200,pharmaceutical
1339,1339,19,26,1,11,97,pharmaceutical
1340,1340,11,10,1,9,98,software
1341,1341,0,16,4,25,123,education
1342,1342,17,18,2,23,190,pharmaceutical
1343,1343,2,15,0,5,207,realestate
1344,1344,14,26,6,11,193,education
1345,1345,4,5,4,9,176,software
1346,1346,17,4,6,21,196,retail
1347,1347,16,2,4,15,151,software
1348,1348,19,24,9,26,108,realestate
1349,1349,15,10,4,19,192,pharmaceutical
1350,1350,4,11,9,2,166,education
1351,1351,0,18,7,20,119,software
1352,1352,7,0,6,12,159,retail
1353,1353,4,27,8,14,157,software
1354,1354,14,14,4,19,187,software
1355,1355,7,26,8,13,144,retail
1356,1356,10,16,8,23,107,pharmaceutical
1357,1357,6,26,5,12,78,education
1358,1358,18,19,6,15,87,realestate
1359,1359,18,15,5,28,90,financial
1360,1360,12,10,8,4,109,financial
1361,1361,8,0,4,13,180,education
1362,1362,9,11,7,14,77,retail
1363,1363,3,15,6,21,192,software
1364,1364,11,18,0,29,95,financial
1365,1365,18,28,2,4,74,software
1366,1366,16,0,6,8,156,pharmaceutical
1367,1367,16,26,4,22,158,education
1368,1368,19,15,1,14,73,retail
1369,1369,5,14,7,19,124,financial
1370,1370,18,5,0,25,55,software
1371,1371,7,24,7,18,126,pharmaceutical
1372,1372,12,1,9,14,81,software
1373,1373,7,8,4,2,133,education
1374,1374,11,21,0,21,128,retail
1375,1375,7,24,0,21,146,education
1376,1376,19,15,8,6,94,financial
1377,1377,8,26,9,21,129,pharmaceutical
1378,1378,1,20,3,15,235,education
1379,1379,13,12,1,28,97,realestate
1380,1380,8,4,9,1,179,software
1381,1381,18,21,7,20,90,pharmaceutical
1382,1382,5,0,8,15,127,pharmaceutical
1383,1383,9,13,3,4,92,financial
1384,1384,9,14,0,21,89,retail
1385,1385,16,25,9,15,153,realestate
1386,1386,1,29,0,16,221,software
1387,1387,7,16,2,23,165,pharmaceutical
1388,1388,1,17,8,3,231,education
1389,1389,1,18,2,17,186,retail
1390,1390,6,16,2,2,62,realestate
1391,1391,0,16,6,0,119,retail
1392,1392,7,10,2,7,124,financial
1393,1393,19,19,7,12,76,realestate
1394,1394,4,29,1,23,180,software
1395,1395,14,3,3,10,196,pharmaceutical
1396,1396,6,4,3,24,52,retail
1397,1397,19,4,0,5,98,education
1398,1398,11,15,3,16,98,financial
1399,1399,8,14,2,25,150,financial
1400,1400,2,21,7,23,209,software
1401,1401,6,29,2,12,65,pharmaceutical
1402,1402,1,11,8,29,207,pharmaceutical
1403,1403,17,14,1,10,190,education
1404,1404,10,21,3,27,139,financial
1405,1405,11,28,6,22,117,retail
1406,1406,18,12,9,16,69,realestate
1407,1407,0,7,9,6,121,pharmaceutical
1408,1408,5,7,0,24,114,software
1409,1409,19,23,5,0,112,software
1410,1410,9,28,8,6,87,education
1411,1411,4,5,1,21,136,education
1412,1412,14,25,9,9,197,realestate
1413,1413,6,21,7,4,70,financial
1414,1414,11,9,2,7,122,realestate
1415,1415,9,29,9,24,78,retail
1416,1416,0,19,8,23,123,pharmaceutical
1417,1417,19,13,9,26,100,retail
1418,1418,2,0,8,20,213,realestate
1419,1419,14,10,5,10,182,education
1420,1420,3,9,8,1,184,software
1421,1421,15,16,3,29,215,retail
1422,1422,3,4,0,16,168,pharmaceutical
1423,1423,8,18,1,9,145,education
1424,1424,14,24,0,7,178,retail
1425,1425,15,16,7,3,196,pharmaceutical
1426,1426,10,17,0,22,91,pharmaceutical
1427,1427,1,9,5,27,165,education
1428,1428,13,8,9,4,108,pharmaceutical
1429,1429,0,24,7,20,120,pharmaceutical
1430,1430,1,29,7,23,190,realestate
1431,1431,10,5,1,13,141,financial
1432,1432,6,26,6,21,44,retail
1433,1433,1,4,5,5,231,realestate
1434,1434,4,24,6,29,183,education
1435,1435,6,29,5,6,59,software
1436,1436,8,24,5,15,190,financial
1437,1437,19,14,0,2,95,software
1438,1438,15,28,5,25,183,financial
1439,1439,15,12,7,20,200,retail
1440,1440,17,7,2,22,205,retail
1441,1441,2,23,2,2,203,realestate
1442,1442,5,14,5,24,132,software
1443,1443,16,21,2,20,155,software
1444,1444,14,7,0,14,191,retail
1445,1445,16,22,9,11,152,financial
1446,1446,17,9,3,29,194,pharmaceutical
1447,1447,1,18,7,6,173,education
1448,1448,13,23,8,10,118,financial
1449,1449,7,14,1,5,156,financial
1450,1450,12,0,6,21,94,education
1451,1451,16,16,2,22,149,education
1452,1452,15,11,9,10,186,financial
1453,1453,11,28,8,29,139,software
1454,1454,3,5,6,9,188,financial
1455,1455,12,12,0,11,98,software
1456,1456,11,7,7,24,135,software
1457,1457,1,17,1,19,226,education
1458,1458,14,3,1,20,196,retail
1459,1459,7,20,1,8,146,pharmaceutical
1460,1460,3,2,3,24,202,financial
1461,1461,4,17,1,29,132,software
1462,1462,13,5,6,26,112,realestate
1463,1463,14,28,4,13,187,pharmaceutical
1464,1464,5,28,0,10,123,software
1465,1465,6,4,7,2,70,retail
1466,1466,6,28,1,5,64,education
1467,1467,17,21,1,9,186,education
1468,1468,19,24,2,17,86,education
1469,1469,9,23,5,11,88,financial
1470,1470,5,28,9,3,126,financial
1471,1471,18,18,0,15,71,software
1472,1472,17,20,5,18,203,retail
1473,1473,16,15,3,10,147,education
1474,1474,17,7,1,27,204,education
1475,1475,17,19,6,20,196,financial
1476,1476,8,3,9,9,150,financial
1477,1477,12,18,7,10,108,education
1478,1478,4,5,7,10,171,financial
1479,1479,6,23,7,1,56,software
1480,1480,0,19,2,6,122,software
1481,1481,10,14,7,13,138,retail
1482,1482,15,25,2,13,189,pharmaceutical
1483,1483,0,12,7,10,121,realestate
1484,1484,9,3,3,10,105,retail
1485,1485,3,15,0,14,213,education
1486,1486,15,20,8,10,193,pharmaceutical
1487,1487,2,0,8,24,200,financial
1488,1488,3,5,3,3,169,education
1489,1489,0,15,6,18,119,retail
1490,1490,0,24,3,10,123,software
1491,1491,5,3,1,18,119,education
1492,1492,0,26,4,4,120,software
1493,1493,17,25,0,29,202,financial
1494,1494,12,26,6,28,94,retail
1495,1495,16,28,8,19,159,financial
1496,1496,13,9,6,18,108,realestate
1497,1497,2,11,3,25,217,pharmaceutical
1498,1498,3,10,8,17,191,software
1499,1499,15,8,8,25,210,software
1500,1500,18,15,1,16,66,pharmaceutical
1501,1501,19,27,3,23,88,education
1502,1502,6,29,7,0,83,financial
1503,1503,3,10,9,8,192,financial
1504,1504,6,24,9,24,60,retail
1505,1505,5,2,9,2,116,financial
1506,1506,14,8,9,7,178,software
1507,1507,8,28,0,19,154,education
1508,1508,2,2,0,3,218,software
1509,1509,9,22,2,21,90,realestate
1510,1510,4,17,8,12,152,software
1511,1511,18,12,7,8,60,education
1512,1512,17,4,1,5,188,retail
1513,1513,19,13,8,25,81,pharmaceutical
1514,1514,15,4,3,5,213,financial
1515,1515,2,13,0,20,219,education
1516,1516,2,25,9,9,208,realestate
1517,1517,9,9,1,7,67,retail
1518,1518,2,21,3,29,207,software
1519,1519,12,15,8,21,94,software
1520,1520,10,22,0,25,144,financial
1521,1521,1,17,4,9,165,retail
1522,1522,0,17,6,4,119,financial
1523,1523,10,11,1,7,153,software
1524,1524,17,5,8,14,189,retail
1525,1525,4,20,0,13,150,education
1526,1526,2,21,8,9,209,education
1527,1527,12,3,3,12,79,financial
1528,1528,0,8,0,29,121,software
1529,1529,0,4,4,9,119,retail
1530,1530,3,21,6,13,205,software
1531,1531,15,3,7,22,182,pharmaceutical
1532,1532,1,24,1,22,187,retail
1533,1533,6,26,9,7,58,pharmaceutical
1534,1534,11,2,2,6,135,pharmaceutical
1535,1535,12,2,3,4,98,financial
1536,1536,0,22,6,28,123,software
1537,1537,2,25,1,20,206,pharmaceutical
1538,1538,14,13,8,16,196,software
1539,1539,9,21,1,7,105,software
1540,1540,14,3,0,7,196,financial
1541,1541,9,22,6,9,84,education
1542,1542,1,0,0,23,234,financial
1543,1543,14,23,1,21,197,financial
1544,1544,15,6,9,13,216,retail
1545,1545,15,24,0,29,182,retail
1546,1546,16,25,3,8,157,pharmaceutical
1547,1547,19,5,6,20,101,pharmaceutical
1548,1548,1,8,8,14,171,financial
1549,1549,2,12,6,17,200,retail
1550,1550,14,1,3,17,189,education
1551,1551,12,0,4,28,98,software
1552,1552,16,5,4,3,161,retail
1553,1553,14,8,2,13,194,financial
1554,1554,10,22,5,10,159,pharmaceutical
1555,1555,11,11,8,16,102,realestate
1556,1556,14,24,0,19,189,software
1557,1557,0,20,9,5,120,education
1558,1558,10,23,6,7,143,retail
1559,1559,9,20,9,3,65,retail
1560,1560,7,11,4,2,152,education
1561,1561,4,8,5,6,148,pharmaceutical
1562,1562,2,11,6,28,211,financial
1563,1563,19,22,0,24,99,retail
1564,1564,17,4,0,29,198,realestate
1565,1565,18,9,8,20,62,retail
1566,1566,12,2,0,28,80,pharmaceutical
1567,1567,15,15,3,22,179,realestate
1568,1568,10,22,7,18,127,software
1569,1569,1,12,2,24,208,pharmaceutical
1570,1570,7,27,1,3,138,realestate
1571,1571,7,12,5,17,162,financial
1572,1572,0,18,6,12,120,retail
1573,1573,14,6,5,7,189,financial
1574,1574,2,15,8,18,209,software
1575,1575,7,22,3,29,125,financial
1576,1576,12,21,8,1,107,education
1577,1577,16,4,0,24,157,education
1578,1578,7,22,9,17,126,financial
1579,1579,19,17,1,20,94,realestate
1580,1580,18,1,0,9,79,pharmaceutical
1581,1581,5,13,3,16,124,financial
1582,1582,8,4,4,16,134,financial
1583,1583,16,26,8,17,154,retail
1584,1584,16,18,0,18,162,education
1585,1585,5,23,4,23,97,financial
1586,1586,6,16,3,21,62,pharmaceutical
1587,1587,19,11,6,19,79,education
1588,1588,13,22,3,27,101,pharmaceutical
1589,1589,16,11,7,16,157,software
1590,1590,1,9,1,19,224,education
1591,1591,17,16,7,10,191,financial
1592,1592,18,12,9,11,98,retail
1593,1593,6,21,9,6,84,realestate
1594,1594,13,7,0,5,134,education
1595,1595,7,3,5,21,167,pharmaceutical
1596,1596,17,16,8,26,190,education
1597,1597,14,22,0,11,186,realestate
1598,1598,4,14,1,24,137,software
1599,1599,2,10,1,4,199,pharmaceutical
1600,1600,18,28,4,0,94,realestate
1601,1601,9,12,7,0,74,realestate
1602,1602,0,16,6,0,121,financial
1603,1603,3,2,6,23,182,retail
1604,1604,11,7,6,27,115,financial
1605,1605,9,29,9,24,54,financial
1606,1606,11,25,0,3,124,financial
1607,1607,7,29,1,11,162,financial
1608,1608,19,18,5,9,89,pharmaceutical
1609,1609,9,26,2,16,61,financial
1610,1610,14,13,6,4,184,education
1611,1611,17,20,5,17,201,pharmaceutical
1612,1612,18,13,6,23,95,software
1613,1613,12,18,6,21,87,retail
1614,1614,19,3,8,6,90,software
1615,1615,10,8,5,10,107,software
1616,1616,8,1,8,2,162,pharmaceutical
1617,1617,14,10,5,24,192,retail
1618,1618,5,19,9,10,124,retail
1619,1619,7,14,5,12,165,realestate
1620,1620,8,25,0,27,166,realestate
1621,1621,11,8,2,7,102,software
1622,1622,10,10,4,6,103,retail
1623,1623,7,16,6,22,143,pharmaceutical
1624,1624,5,20,3,3,94,retail
1625,1625,19,24,1,21,103,education
1626,1626,7,0,9,21,163,software
1627,1627,4,20,7,12,178,financial
1628,1628,1,8,0,24,233,realestate
1629,1629,4,25,7,23,160,retail
1630,1630,0,29,5,9,123,education
1631,1631,0,10,7,3,119,pharmaceutical
1632,1632,11,19,3,19,137,education
1633,1633,7,4,5,20,122,education
1634,1634,13,0,6,0,122,education
1635,1635,4,25,1,29,131,pharmaceutical
1636,1636,11,15,9,17,127,financial
1637,1637,17,11,6,3,203,financial
1638,1638,14,0,0,6,189,education
1639,1639,12,29,2,25,82,education
1640,1640,7,21,2,10,152,education
1641,1641,6,1,5,14,52,pharmaceutical
1642,1642,11,20,3,25,100,pharmaceutical
1643,1643,14,27,5,9,195,pharmaceutical
1644,1644,16,2,3,24,153,retail
1645,1645,13,11,7,17,86,financial
1646,1646,9,9,7,10,65,financial
1647,1647,9,0,2,15,88,financial
1648,1648,3,23,4,21,167,software
1649,1649,15,22,7,0,184,realestate
1650,1650,1,17,8,3,211,pharmaceutical
1651,1651,11,28,6,0,99,pharmaceutical
1652,1652,3,19,5,23,191,financial
1653,1653,2,3,6,11,211,financial
1654,1654,6,17,2,24,52,realestate
1655,1655,0,7,2,14,122,education
1656,1656,4,12,8,0,169,realestate
1657,1657,6,24,4,21,83,realestate
1658,1658,3,0,0,22,168,software
1659,1659,5,1,3,8,124,financial
1660,1660,6,6,2,8,56,financial
1661,1661,6,11,9,8,57,realestate
1662,1662,15,22,7,8,207,realestate
1663,1663,8,6,0,20,203,software
1664,1664,16,27,7,23,150,realestate
1665,1665,1,10,3,25,164,retail
1666,1666,2,22,5,6,212,realestate
1667,1667,3,3,8,20,214,education
1668,1668,5,15,0,27,94,software
1669,1669,0,24,4,16,122,pharmaceutical
1670,1670,1,17,7,26,192,pharmaceutical
1671,1671,9,8,2,18,84,financial
1672,1672,10,13,5,10,125,financial
1673,1673,4,29,1,6,170,realestate
1674,1674,13,18,3,1,96,realestate
1675,1675,1,29,2,20,225,financial
1676,1676,5,24,4,9,110,financial
1677,1677,13,25,6,23,141,education
1678,1678,7,11,8,16,131,financial
1679,1679,12,27,3,24,103,pharmaceutical
1680,1680,12,19,1,25,81,retail
1681,1681,14,18,9,12,198,software
1682,1682,4,6,6,21,181,pharmaceutical
1683,1683,14,13,8,19,188,software
1684,1684,5,29,7,22,131,pharmaceutical
1685,1685,1,1,7,11,206,education
1686,1686,1,20,6,13,212,realestate
1687,1687,18,6,3,27,54,financial
1688,1688,19,20,9,1,79,retail
1689,1689,15,7,9,25,202,software
1690,1690,7,18,6,4,126,software
1691,1691,19,28,1,7,117,realestate
1692,1692,8,14,2,29,111,retail
1693,1693,5,24,1,1,130,pharmaceutical
1694,1694,2,6,5,18,201,education
1695,1695,0,25,1,17,122,pharmaceutical
1696,1696,19,1,6,13,106,software
1697,1697,14,16,8,21,187,pharmaceutical
1698,1698,16,22,9,2,162,financial
1699,1699,15,8,3,22,194,financial
1700,1700,12,10,7,0,85,software
1701,1701,4,13,3,20,191,software
1702,1702,0,18,4,16,121,financial
1703,1703,17,21,4,9,185,financial
1704,1704,18,23,5,16,64,financial
1705,1705,10,17,4,7,112,pharmaceutical
1706,1706,4,11,4,25,147,software
1707,1707,3,8,4,27,203,pharmaceutical
1708,1708,4,19,1,10,155,financial
1709,1709,0,12,1,28,120,software
1710,1710,16,10,5,5,154,education
1711,1711,17,6,7,21,187,realestate
1712,1712,9,25,5,19,80,software
1713,1713,2,26,8,28,215,retail
1714,1714,13,19,2,9,87,software
1715,1715,4,19,7,19,151,software
1716,1716,10,2,5,24,154,pharmaceutical
1717,1717,8,12,3,3,111,financial
1718,1718,11,24,6,1,136,retail
1719,1719,14,6,2,9,193,retail
1720,1720,2,10,2,10,214,software
1721,1721,3,10,6,29,169,realestate
1722,1722,6,10,0,25,46,retail
1723,1723,10,24,5,18,107,financial
1724,1724,5,5,8,13,127,retail
1725,1725,1,22,4,27,227,pharmaceutical
1726,1726,9,5,6,14,57,pharmaceutical
1727,1727,15,6,0,7,200,retail
1728,1728,10,8,2,5,88,software
1729,1729,6,27,2,14,52,software
1730,1730,9,19,6,11,69,software
1731,1731,13,18,3,13,124,retail
1732,1732,8,4,1,27,151,software
1733,1733,2,14,4,24,199,pharmaceutical
1734,1734,5,12,5,10,105,education
1735,1735,18,5,5,29,76,financial
1736,1736,8,26,0,16,168,retail
1737,1737,16,27,7,8,156,pharmaceutical
1738,1738,4,10,9,11,175,retail
1739,1739,11,13,5,4,99,financial
1740,1740,5,7,2,18,117,software
1741,1741,14,6,8,0,184,software
1742,1742,18,13,2,22,84,software
1743,1743,7,22,9,22,144,pharmaceutical
1744,1744,4,19,2,22,142,realestate
1745,1745,19,8,3,4,116,pharmaceutical
1746,1746,16,6,7,11,156,financial
1747,1747,2,25,3,22,217,pharmaceutical
1748,1748,3,18,7,14,201,retail
1749,1749,14,22,2,24,198,realestate
1750,1750,11,17,1,19,96,education
1751,1751,8,25,6,2,208,financial
1752,1752,17,15,9,8,187,software
1753,1753,4,10,3,19,189,financial
1754,1754,1,16,7,4,190,realestate
1755,1755,5,13,9,0,125,retail
1756,1756,16,4,9,16,154,financial
1757,1757,1,25,3,13,197,pharmaceutical
1758,1758,8,0,8,17,133,education
1759,1759,4,23,9,25,159,financial
1760,1760,10,0,9,15,90,financial
1761,1761,17,23,8,7,185,financial
1762,1762,15,5,6,28,182,realestate
1763,1763,8,22,9,9,119,retail
1764,1764,18,11,9,17,84,financial
1765,1765,2,29,9,3,209,education
1766,1766,2,18,1,10,219,realestate
1767,1767,18,13,9,6,84,software
1768,1768,8,0,8,17,207,software
1769,1769,10,22,7,17,100,education
1770,1770,5,12,7,21,111,financial
1771,1771,14,10,4,15,191,pharmaceutical
1772,1772,5,18,9,4,140,retail
1773,1773,2,12,1,2,218,realestate
1774,1774,6,17,5,3,45,software
1775,1775,14,2,5,17,192,education
1776,1776,18,22,5,10,98,software
1777,1777,6,13,5,21,48,financial
1778,1778,13,14,6,9,130,financial
1779,1779,16,17,2,12,150,education
1780,1780,11,23,6,3,96,education
1781,1781,4,27,0,14,159,retail
1782,1782,14,10,9,18,178,financial
1783,1783,0,12,5,28,123,realestate
1784,1784,7,7,4,18,133,software
1785,1785,16,14,1,23,160,realestate
1786,1786,14,17,9,4,190,education
1787,1787,17,13,0,6,204,financial
1788,1788,6,20,0,21,58,financial
1789,1789,18,27,9,22,101,realestate
1790,1790,18,25,3,10,84,realestate
1791,1791,9,5,1,18,72,financial
1792,1792,12,23,9,0,92,retail
1793,1793,4,14,6,3,134,realestate
1794,1794,13,0,4,27,126,pharmaceutical
1795,1795,13,8,9,1,143,realestate
1796,1796,13,20,3,7,145,realestate
1797,1797,16,21,7,0,158,pharmaceutical
1798,1798,7,17,0,17,123,retail
1799,1799,3,21,4,6,165,education
1800,1800,10,1,8,20,147,pharmaceutical
1801,1801,9,5,1,8,90,pharmaceutical
1802,1802,0,13,9,28,121,retail
1803,1803,11,15,5,27,141,realestate
1804,1804,15,5,3,17,214,financial
1805,1805,1,16,6,21,236,pharmaceutical
1806,1806,11,13,4,20,115,financial
1807,1807,18,16,1,0,80,pharmaceutical
1808,1808,15,10,8,24,215,pharmaceutical
1809,1809,10,27,5,15,135,realestate
1810,1810,1,21,4,10,209,education
1811,1811,9,27,5,20,43,software
1812,1812,2,12,5,26,211,retail
1813,1813,14,27,6,7,178,pharmaceutical
1814,1814,19,19,6,26,84,software
1815,1815,2,28,6,20,206,software
1816,1816,2,16,4,8,216,realestate
1817,1817,3,18,0,17,192,financial
1818,1818,19,25,7,0,118,software
1819,1819,13,20,1,10,124,software
1820,1820,9,0,2,25,81,pharmaceutical
1821,1821,8,1,4,22,166,retail
1822,1822,11,17,0,12,133,pharmaceutical
1823,1823,9,1,9,22,62,retail
1824,1824,2,5,7,2,216,software
1825,1825,14,14,5,0,195,pharmaceutical
1826,1826,15,16,0,10,192,financial
1827,1827,19,6,5,20,98,software
1828,1828,2,5,4,20,212,financial
1829,1829,15,24,8,25,187,pharmaceutical
1830,1830,18,14,2,11,55,financial
1831,1831,4,14,5,21,142,software
1832,1832,10,27,4,9,154,realestate
1833,1833,12,2,6,26,86,education
1834,1834,12,11,8,27,110,realestate
1835,1835,11,4,7,14,104,software
1836,1836,16,6,0,2,151,financial
1837,1837,11,14,5,10,125,software
1838,1838,10,6,2,21,144,pharmaceutical
1839,1839,2,23,8,15,199,pharmaceutical
1840,1840,11,28,3,18,115,financial
1841,1841,15,20,6,11,208,education
1842,1842,6,12,8,1,55,pharmaceutical
1843,1843,14,7,1,17,182,financial
1844,1844,13,12,2,10,124,pharmaceutical
1845,1845,12,18,8,17,89,realestate
1846,1846,11,21,8,3,114,software
1847,1847,10,6,4,26,124,retail
1848,1848,4,29,7,10,147,retail
1849,1849,7,16,7,20,153,realestate
1850,1850,3,7,2,23,185,realestate
1851,1851,9,24,0,22,46,financial
1852,1852,17,20,7,1,193,financial
1853,1853,11,26,0,22,128,financial
1854,1854,9,16,7,28,43,software
1855,1855,16,23,7,11,162,software
1856,1856,13,5,6,4,115,financial
1857,1857,15,18,3,21,192,education
1858,1858,1,15,8,6,207,financial
1859,1859,19,2,6,13,108,retail
1860,1860,8,3,7,22,141,financial
1861,1861,4,18,9,21,185,realestate
1862,1862,5,5,0,16,99,pharmaceutical
1863,1863,17,8,1,8,194,retail
1864,1864,16,14,0,14,153,financial
1865,1865,19,26,5,29,104,realestate
1866,1866,12,2,6,27,86,retail
1867,1867,10,26,5,20,151,financial
1868,1868,19,8,4,6,89,realestate
1869,1869,4,1,0,20,154,pharmaceutical
1870,1870,11,15,1,17,101,retail
1871,1871,16,22,9,5,152,education
1872,1872,6,5,5,28,55,realestate
1873,1873,14,10,5,0,196,retail
1874,1874,6,27,6,14,61,financial
1875,1875,2,9,8,2,203,financial
1876,1876,19,9,2,10,108,retail
1877,1877,6,26,7,4,46,financial
1878,1878,6,2,6,2,46,pharmaceutical
1879,1879,13,12,7,16,136,retail
1880,1880,18,1,9,0,84,retail
1881,1881,6,22,5,28,67,education
1882,1882,13,3,3,29,105,retail
1883,1883,3,20,3,18,217,retail
1884,1884,8,10,0,9,115,realestate
1885,1885,11,16,1,7,109,pharmaceutical
1886,1886,10,3,4,4,130,education
1887,1887,18,12,4,28,55,retail
1888,1888,13,17,8,11,129,education
1889,1889,16,5,7,2,150,pharmaceutical
1890,1890,19,24,0,8,119,software
1891,1891,8,14,8,8,141,realestate
1892,1892,12,3,0,14,104,pharmaceutical
1893,1893,7,28,6,23,165,financial
1894,1894,4,0,0,17,156,education
1895,1895,1,7,8,7,212,financial
1896,1896,16,9,0,21,162,financial
1897,1897,15,22,9,9,210,financial
1898,1898,18,21,2,0,85,software
1899,1899,11,11,0,6,124,education
1900,1900,13,0,4,24,134,financial
1901,1901,11,29,3,3,130,financial
1902,1902,6,23,8,19,55,education
1903,1903,19,4,6,22,86,retail
1904,1904,12,7,6,4,92,financial
1905,1905,1,17,3,16,203,realestate
1906,1906,4,15,7,10,156,software
1907,1907,18,26,8,21,90,financial
1908,1908,5,28,0,19,94,education
1909,1909,7,26,3,15,135,retail
1910,1910,0,12,2,0,121,pharmaceutical
1911,1911,5,25,1,1,131,realestate
1912,1912,16,28,7,2,146,retail
1913,1913,0,23,6,19,119,education
1914,1914,7,17,3,28,156,education
1915,1915,12,28,1,29,96,software
1916,1916,1,6,6,12,183,financial
1917,1917,3,9,4,24,192,retail
1918,1918,11,25,5,13,139,retail
1919,1919,7,5,5,20,161,education
1920,1920,9,25,1,15,104,retail
1921,1921,4,16,9,23,136,financial
1922,1922,6,15,1,16,64,realestate
1923,1923,7,5,6,20,163,software
1924,1924,13,21,6,19,140,retail
1925,1925,8,4,4,4,159,education
1926,1926,13,4,9,23,127,retail
1927,1927,10,23,1,18,148,financial
1928,1928,17,2,1,2,199,retail
1929,1929,15,1,0,4,203,pharmaceutical
1930,1930,13,11,5,8,130,financial
1931,1931,14,4,9,4,185,software
1932,1932,17,26,3,29,204,pharmaceutical
1933,1933,14,28,9,10,184,software
1934,1934,6,1,0,23,39,financial
1935,1935,3,18,5,28,176,software
1936,1936,13,20,8,0,127,financial
1937,1937,14,23,3,15,184,retail
1938,1938,16,18,2,0,153,realestate
1939,1939,13,14,6,24,87,retail
1940,1940,18,12,7,12,61,realestate
1941,1941,8,19,5,8,167,software
1942,1942,8,26,6,27,170,education
1943,1943,19,1,3,8,78,software
1944,1944,19,2,1,22,95,education
1945,1945,11,23,1,19,108,pharmaceutical
1946,1946,1,23,8,22,231,pharmaceutical
1947,1947,14,2,2,13,181,pharmaceutical
1948,1948,17,3,0,15,198,pharmaceutical
1949,1949,13,13,0,24,91,education
1950,1950,7,25,2,5,154,software
1951,1951,7,29,4,8,165,realestate
1952,1952,15,25,9,3,213,software
1953,1953,7,7,1,5,154,pharmaceutical
1954,1954,4,25,3,18,171,retail
1955,1955,16,23,0,10,146,financial
1956,1956,11,22,4,0,95,retail
1957,1957,6,20,6,27,60,software
1958,1958,2,29,0,18,200,pharmaceutical
1959,1959,3,13,7,18,183,financial
1960,1960,1,16,2,13,182,financial
1961,1961,3,7,2,20,186,financial
1962,1962,10,23,6,12,143,realestate
1963,1963,0,28,1,16,122,financial
1964,1964,7,14,6,28,162,education
1965,1965,19,28,8,12,118,realestate
1966,1966,11,16,8,13,107,financial
1967,1967,0,14,3,20,119,realestate
1968,1968,8,2,7,19,197,software
1969,1969,1,18,0,24,225,financial
1970,1970,10,20,0,26,103,pharmaceutical
1971,1971,0,25,1,5,122,retail
1972,1972,15,1,5,4,182,retail
1973,1973,9,7,7,22,96,financial
1974,1974,18,2,2,13,80,software
1975,1975,8,10,0,10,197,education
1976,1976,13,24,7,14,110,pharmaceutical
1977,1977,9,18,0,24,105,software
1978,1978,13,13,1,12,141,education
1979,1979,1,16,8,6,211,software
1980,1980,18,4,0,21,81,education
1981,1981,10,0,9,13,112,retail
1982,1982,3,8,3,2,170,software
1983,1983,14,3,7,29,187,financial
1984,1984,2,1,5,8,208,financial
1985,1985,6,13,8,8,75,education
1986,1986,15,28,9,5,203,education
1987,1987,14,6,8,8,183,software
1988,1988,15,20,8,25,184,software
1989,1989,7,26,8,16,119,retail
1990,1990,3,5,2,8,187,pharmaceutical
1991,1991,0,19,4,12,123,financial
1992,1992,6,3,0,4,82,pharmaceutical
1993,1993,19,3,8,15,119,financial
1994,1994,11,22,2,15,124,education
1995,1995,5,12,3,0,119,education
1996,1996,16,1,2,4,154,retail
1997,1997,19,8,1,16,119,software
1998,1998,11,10,1,29,121,software
1999,1999,2,5,1,17,202,financial
